<?xml version="1.0" encoding="UTF-8" standalone="no"?>
<!DOCTYPE svg PUBLIC "-//W3C//DTD SVG 1.1//EN" "http://www.w3.org/Graphics/SVG/1.1/DTD/svg11.dtd">
<svg width="100%" height="100%" viewBox="0 0 65 65" version="1.1" xmlns="http://www.w3.org/2000/svg" xmlns:xlink="http://www.w3.org/1999/xlink" xml:space="preserve" xmlns:serif="http://www.serif.com/" style="fill-rule:evenodd;clip-rule:evenodd;stroke-linejoin:round;stroke-miterlimit:2;">
    <g transform="matrix(1,0,0,1,-295,-84)">
        <g id="slideshow_arrows_outside" transform="matrix(0.487212,0,0,0.482658,279.438,7.23499)">
            <rect x="33.322" y="161.102" width="131.36" height="132.599" style="fill:none;"/>
            <clipPath id="_clip1">
                <rect x="33.322" y="161.102" width="131.36" height="132.599"/>
            </clipPath>
            <g clip-path="url(#_clip1)">
                <g transform="matrix(1.642,0,0,1.65749,33.3219,161.102)">
                    <rect x="0" y="0" width="80" height="80" style="fill:rgb(31,31,31);"/>
                </g>
                <g transform="matrix(1.54447,0,0,1.35933,43.7715,170.455)">
                    <g transform="matrix(0.489596,0,0,0.487735,-1.12735,16.8319)">
                        <path d="M43.224,45.441L35.765,45.441L34.458,48.482C34.135,49.23 33.974,49.789 33.974,50.158C33.974,50.452 34.114,50.71 34.394,50.933C34.673,51.155 35.277,51.3 36.205,51.366L36.205,51.892L30.138,51.892L30.138,51.366C30.944,51.224 31.464,51.039 31.701,50.812C32.184,50.357 32.719,49.434 33.307,48.041L40.084,32.186L40.581,32.186L47.287,48.212C47.827,49.5 48.317,50.336 48.757,50.719C49.198,51.103 49.811,51.319 50.597,51.366L50.597,51.892L42.996,51.892L42.996,51.366C43.763,51.328 44.282,51.2 44.552,50.982C44.822,50.764 44.957,50.499 44.957,50.187C44.957,49.77 44.767,49.112 44.389,48.212L43.224,45.441ZM42.826,44.39L39.558,36.604L36.205,44.39L42.826,44.39Z" style="fill:white;fill-rule:nonzero;"/>
                    </g>
                    <g transform="matrix(0.279085,0,0,0.97547,9.49135,5.08051)">
                        <g id="Box">
                            <path d="M58.653,10.306L58.653,55.826C58.653,57.551 54.386,58.951 49.13,58.951L16.407,58.951C11.151,58.951 6.884,57.551 6.884,55.826L6.884,10.306C6.884,8.582 11.151,7.181 16.407,7.181L49.13,7.181C54.386,7.181 58.653,8.582 58.653,10.306ZM53.892,10.306C53.892,9.444 51.758,8.744 49.13,8.744L16.407,8.744C13.779,8.744 11.646,9.444 11.646,10.306L11.646,55.826C11.646,56.688 13.779,57.389 16.407,57.389L49.13,57.389C51.758,57.389 53.892,56.688 53.892,55.826L53.892,10.306Z" style="fill:white;"/>
                        </g>
                    </g>
                </g>
                <g transform="matrix(1.54447,0,0,1.35933,71.3653,170.455)">
                    <g transform="matrix(0.489596,0,0,0.487735,-1.12735,16.8319)">
                        <path d="M43.224,45.441L35.765,45.441L34.458,48.482C34.135,49.23 33.974,49.789 33.974,50.158C33.974,50.452 34.114,50.71 34.394,50.933C34.673,51.155 35.277,51.3 36.205,51.366L36.205,51.892L30.138,51.892L30.138,51.366C30.944,51.224 31.464,51.039 31.701,50.812C32.184,50.357 32.719,49.434 33.307,48.041L40.084,32.186L40.581,32.186L47.287,48.212C47.827,49.5 48.317,50.336 48.757,50.719C49.198,51.103 49.811,51.319 50.597,51.366L50.597,51.892L42.996,51.892L42.996,51.366C43.763,51.328 44.282,51.2 44.552,50.982C44.822,50.764 44.957,50.499 44.957,50.187C44.957,49.77 44.767,49.112 44.389,48.212L43.224,45.441ZM42.826,44.39L39.558,36.604L36.205,44.39L42.826,44.39Z" style="fill:white;fill-rule:nonzero;"/>
                    </g>
                    <g transform="matrix(0.279085,0,0,0.97547,9.49135,5.08051)">
                        <g id="Box1" serif:id="Box">
                            <path d="M58.653,10.306L58.653,55.826C58.653,57.551 54.386,58.951 49.13,58.951L16.407,58.951C11.151,58.951 6.884,57.551 6.884,55.826L6.884,10.306C6.884,8.582 11.151,7.181 16.407,7.181L49.13,7.181C54.386,7.181 58.653,8.582 58.653,10.306ZM53.892,10.306C53.892,9.444 51.758,8.744 49.13,8.744L16.407,8.744C13.779,8.744 11.646,9.444 11.646,10.306L11.646,55.826C11.646,56.688 13.779,57.389 16.407,57.389L49.13,57.389C51.758,57.389 53.892,56.688 53.892,55.826L53.892,10.306Z" style="fill:white;"/>
                        </g>
                    </g>
                </g>
                <g transform="matrix(1.54447,0,0,1.35933,98.9591,170.455)">
                    <g transform="matrix(0.489596,0,0,0.487735,-1.12735,16.8319)">
                        <path d="M43.224,45.441L35.765,45.441L34.458,48.482C34.135,49.23 33.974,49.789 33.974,50.158C33.974,50.452 34.114,50.71 34.394,50.933C34.673,51.155 35.277,51.3 36.205,51.366L36.205,51.892L30.138,51.892L30.138,51.366C30.944,51.224 31.464,51.039 31.701,50.812C32.184,50.357 32.719,49.434 33.307,48.041L40.084,32.186L40.581,32.186L47.287,48.212C47.827,49.5 48.317,50.336 48.757,50.719C49.198,51.103 49.811,51.319 50.597,51.366L50.597,51.892L42.996,51.892L42.996,51.366C43.763,51.328 44.282,51.2 44.552,50.982C44.822,50.764 44.957,50.499 44.957,50.187C44.957,49.77 44.767,49.112 44.389,48.212L43.224,45.441ZM42.826,44.39L39.558,36.604L36.205,44.39L42.826,44.39Z" style="fill:white;fill-rule:nonzero;"/>
                    </g>
                    <g transform="matrix(0.279085,0,0,0.97547,9.49135,5.08051)">
                        <g id="Box2" serif:id="Box">
                            <path d="M58.653,10.306L58.653,55.826C58.653,57.551 54.386,58.951 49.13,58.951L16.407,58.951C11.151,58.951 6.884,57.551 6.884,55.826L6.884,10.306C6.884,8.582 11.151,7.181 16.407,7.181L49.13,7.181C54.386,7.181 58.653,8.582 58.653,10.306ZM53.892,10.306C53.892,9.444 51.758,8.744 49.13,8.744L16.407,8.744C13.779,8.744 11.646,9.444 11.646,10.306L11.646,55.826C11.646,56.688 13.779,57.389 16.407,57.389L49.13,57.389C51.758,57.389 53.892,56.688 53.892,55.826L53.892,10.306Z" style="fill:white;"/>
                        </g>
                    </g>
                </g>
                <g id="Slideshow-Arrow" serif:id="Slideshow Arrow" transform="matrix(1.61629,0,0,1.42255,28.7097,168.031)">
                    <g transform="matrix(0.903827,0,0,1.03661,-311.727,-475.485)">
                        <circle cx="357.912" cy="495.825" r="6.587" style="fill:rgb(165,194,49);"/>
                    </g>
                    <g transform="matrix(0.529404,0,0,0.97547,-178.399,-446.667)">
                        <path d="M358.67,498.695L358.67,501.172L352.547,497.36L358.67,493.549L358.67,496.026L365.857,496.026L365.857,498.695L358.67,498.695Z" style="fill:rgb(31,31,31);"/>
                    </g>
                </g>
                <g id="Slideshow-Arrow1" serif:id="Slideshow Arrow" transform="matrix(-1.61629,0,0,1.42255,170.641,168.031)">
                    <g transform="matrix(0.903827,0,0,1.03661,-311.727,-475.485)">
                        <circle cx="357.912" cy="495.825" r="6.587" style="fill:rgb(165,194,49);"/>
                    </g>
                    <g transform="matrix(0.529404,0,0,0.97547,-178.399,-446.667)">
                        <path d="M358.67,498.695L358.67,501.172L352.547,497.36L358.67,493.549L358.67,496.026L365.857,496.026L365.857,498.695L358.67,498.695Z" style="fill:rgb(31,31,31);"/>
                    </g>
                </g>
                <g transform="matrix(-0.638835,0,0,0.644862,327.648,-41.5478)">
                    <circle cx="357.912" cy="495.825" r="6.587" style="fill:white;"/>
                </g>
                <g transform="matrix(-0.638835,0,0,0.644862,340.045,-41.5478)">
                    <circle cx="357.912" cy="495.825" r="6.587" style="fill:white;"/>
                </g>
                <g transform="matrix(-0.638835,0,0,0.644862,315.251,-41.5478)">
                    <circle cx="357.912" cy="495.825" r="6.587" style="fill:white;"/>
                </g>
            </g>
        </g>
    </g>
</svg>
